{
	"ABI version": 2,
	"header": ["pubkey", "time", "expire"],
	"functions": [
		{
			"name": "constructor",
			"inputs": [
			],
			"outputs": [
			]
		},
		{
			"name": "vest",
			"inputs": [
				{"name":"multisig","type":"address"},
				{"name":"depool","type":"address"},
				{"name":"for6months","type":"bool"}
			],
			"outputs": [
			]
		},
		{
			"name": "collect",
			"inputs": [
				{"name":"multisig","type":"address"}
			],
			"outputs": [
			]
		},
		{
			"name": "getCollectInfo",
			"inputs": [
			],
			"outputs": [
				{"name":"collect_date1","type":"uint64"},
				{"name":"collect_date2","type":"uint64"},
				{"name":"amount","type":"uint128"},
				{"name":"bonus","type":"uint128"}
			]
		},
		{
			"name": "closeSwap",
			"inputs": [
			],
			"outputs": [
			]
		},
		{
			"name": "receiveAnswer",
			"inputs": [
				{"name":"errcode","type":"uint32"},
				{"name":"value1","type":"uint64"}
			],
			"outputs": [
			]
		}
	],
	"data": [
	],
	"events": [
	]
}
