{
	"ABI version": 2,
	"header": ["pubkey", "time", "expire"],
	"functions": [
		{
			"name": "setDePools",
			"inputs": [
				{"name":"names","type":"bytes[]"},
				{"name":"addresses","type":"address[]"}
			],
			"outputs": [
			]
		},
		{
			"name": "setSurfCode",
			"inputs": [
				{"name":"code","type":"cell"}
			],
			"outputs": [
			]
		},
		{
			"name": "setRootContract",
			"inputs": [
				{"name":"root","type":"address"}
			],
			"outputs": [
			]
		},
		{
			"name": "setAirdropContract",
			"inputs": [
				{"name":"root","type":"address"}
			],
			"outputs": [
			]
		},
		{
			"name": "start",
			"inputs": [
			],
			"outputs": [
			]
		},
		{
			"name": "on_askMultisigAddressCallback",
			"inputs": [
				{"name":"value","type":"address"}
			],
			"outputs": [
			]
		},
		{
			"name": "on_askMultisigAddressStatusCallback",
			"inputs": [
				{"name":"acc_type","type":"int8"}
			],
			"outputs": [
			]
		},
		{
			"name": "reallyGetCustodians",
			"inputs": [
			],
			"outputs": [
			]
		},
		{
			"name": "onErrorGetCustodians",
			"inputs": [
				{"name":"sdkError","type":"uint32"},
				{"name":"exitCode","type":"uint32"}
			],
			"outputs": [
			]
		},
		{
			"name": "onHasCustodians",
			"inputs": [
				{"components":[{"name":"index","type":"uint8"},{"name":"pubkey","type":"uint256"}],"name":"custodians","type":"tuple[]"}
			],
			"outputs": [
			]
		},
		{
			"name": "_askPubkeyCallback",
			"inputs": [
				{"name":"value","type":"bytes"}
			],
			"outputs": [
			]
		},
		{
			"name": "onHasPubkey",
			"inputs": [
			],
			"outputs": [
			]
		},
		{
			"name": "oldSwapOf2021",
			"inputs": [
			],
			"outputs": [
			]
		},
		{
			"name": "newSwapOf2022",
			"inputs": [
			],
			"outputs": [
			]
		},
		{
			"name": "onVestingAddr",
			"inputs": [
				{"name":"vesting_addr","type":"address"}
			],
			"outputs": [
			]
		},
		{
			"name": "checkVestingContractBalanceCC",
			"inputs": [
			],
			"outputs": [
			]
		},
		{
			"name": "checkVestingContractBalance",
			"inputs": [
				{"name":"nanotokens","type":"uint128"}
			],
			"outputs": [
			]
		},
		{
			"name": "checkVestingContractStatusCC",
			"inputs": [
			],
			"outputs": [
			]
		},
		{
			"name": "checkVestingContractStatus",
			"inputs": [
				{"name":"acc_type","type":"uint8"}
			],
			"outputs": [
			]
		},
		{
			"name": "deployVestingContract",
			"inputs": [
			],
			"outputs": [
			]
		},
		{
			"name": "reallyDeployVestingContract",
			"inputs": [
			],
			"outputs": [
			]
		},
		{
			"name": "mainMenu",
			"inputs": [
			],
			"outputs": [
			]
		},
		{
			"name": "onCollectInfo",
			"inputs": [
				{"name":"collect_date1","type":"uint64"},
				{"name":"collect_date2","type":"uint64"},
				{"name":"amount","type":"uint128"},
				{"name":"bonus","type":"uint128"}
			],
			"outputs": [
			]
		},
		{
			"name": "_mainMenu",
			"inputs": [
			],
			"outputs": [
			]
		},
		{
			"name": "onErrorMenu",
			"inputs": [
				{"name":"sdkError","type":"uint32"},
				{"name":"exitCode","type":"uint32"}
			],
			"outputs": [
			]
		},
		{
			"name": "vestTokens",
			"inputs": [
			],
			"outputs": [
			]
		},
		{
			"name": "_queryDePoolAddress",
			"inputs": [
			],
			"outputs": [
			]
		},
		{
			"name": "onQueryDepoolAddress",
			"inputs": [
				{"name":"value","type":"bytes"}
			],
			"outputs": [
			]
		},
		{
			"name": "on_askDePoolAddressCallback",
			"inputs": [
				{"name":"value","type":"address"}
			],
			"outputs": [
			]
		},
		{
			"name": "on_askDePoolAddressStatusCallback",
			"inputs": [
				{"name":"acc_type","type":"int8"}
			],
			"outputs": [
			]
		},
		{
			"name": "_getDePoolStatusCC",
			"inputs": [
			],
			"outputs": [
			]
		},
		{
			"name": "onDePoolInfo",
			"inputs": [
				{"name":"poolClosed","type":"bool"},
				{"name":"minStake","type":"uint64"},
				{"name":"value2","type":"uint64"},
				{"name":"value3","type":"uint8"},
				{"name":"validatorRewardFraction","type":"uint8"},
				{"name":"value5","type":"uint64"},
				{"name":"value6","type":"address"},
				{"name":"value7","type":"address[]"},
				{"name":"stakeFee","type":"uint64"},
				{"name":"value9","type":"uint64"},
				{"name":"value10","type":"uint64"}
			],
			"outputs": [
			]
		},
		{
			"name": "confirmDepool",
			"inputs": [
				{"name":"value","type":"bool"}
			],
			"outputs": [
			]
		},
		{
			"name": "checkParticipant",
			"inputs": [
			],
			"outputs": [
			]
		},
		{
			"name": "onParticipants",
			"inputs": [
				{"name":"participants","type":"address[]"}
			],
			"outputs": [
			]
		},
		{
			"name": "checkParticipantInfo",
			"inputs": [
			],
			"outputs": [
			]
		},
		{
			"name": "onParticipantInfo",
			"inputs": [
				{"name":"value0","type":"uint64"},
				{"name":"value1","type":"uint64"},
				{"name":"value2","type":"bool"},
				{"name":"value3","type":"uint64"},
				{"name":"value4","type":"map(uint64,uint64)"},
				{"components":[{"name":"remainingAmount","type":"uint64"},{"name":"lastWithdrawalTime","type":"uint64"},{"name":"withdrawalPeriod","type":"uint32"},{"name":"withdrawalValue","type":"uint64"},{"name":"owner","type":"address"}],"name":"vestings","type":"map(uint64,tuple)"},
				{"components":[{"name":"remainingAmount","type":"uint64"},{"name":"lastWithdrawalTime","type":"uint64"},{"name":"withdrawalPeriod","type":"uint32"},{"name":"withdrawalValue","type":"uint64"},{"name":"owner","type":"address"}],"name":"value6","type":"map(uint64,tuple)"},
				{"name":"vestingDonor","type":"address"},
				{"name":"value8","type":"address"}
			],
			"outputs": [
			]
		},
		{
			"name": "menuSetVestingDonor",
			"inputs": [
			],
			"outputs": [
			]
		},
		{
			"name": "setVestingDonor",
			"inputs": [
			],
			"outputs": [
			]
		},
		{
			"name": "setVestingPeriod",
			"inputs": [
				{"name":"value","type":"bool"}
			],
			"outputs": [
			]
		},
		{
			"name": "reallyVestTokens",
			"inputs": [
			],
			"outputs": [
			]
		},
		{
			"name": "onVestedTokens",
			"inputs": [
			],
			"outputs": [
			]
		},
		{
			"name": "becomeParticipant",
			"inputs": [
			],
			"outputs": [
			]
		},
		{
			"name": "onMultisigBalance",
			"inputs": [
				{"name":"nanotokens","type":"uint128"}
			],
			"outputs": [
			]
		},
		{
			"name": "onConfirmOrdinaryStake",
			"inputs": [
				{"name":"value","type":"bool"}
			],
			"outputs": [
			]
		},
		{
			"name": "collectTokens",
			"inputs": [
			],
			"outputs": [
			]
		},
		{
			"name": "onCollectTokensConfirm",
			"inputs": [
				{"name":"value","type":"bool"}
			],
			"outputs": [
			]
		},
		{
			"name": "reallyCollectTokens",
			"inputs": [
			],
			"outputs": [
			]
		},
		{
			"name": "onCollectTokensOk",
			"inputs": [
			],
			"outputs": [
			]
		},
		{
			"name": "onCollectTokensError",
			"inputs": [
				{"name":"sdkError","type":"uint32"},
				{"name":"exitCode","type":"uint32"}
			],
			"outputs": [
			]
		},
		{
			"name": "setIcon",
			"inputs": [
				{"name":"icon","type":"bytes"}
			],
			"outputs": [
			]
		},
		{
			"name": "getDebotInfo",
			"id": "0xDEB",
			"inputs": [
			],
			"outputs": [
				{"name":"name","type":"bytes"},
				{"name":"version","type":"bytes"},
				{"name":"publisher","type":"bytes"},
				{"name":"caption","type":"bytes"},
				{"name":"author","type":"bytes"},
				{"name":"support","type":"address"},
				{"name":"hello","type":"bytes"},
				{"name":"language","type":"bytes"},
				{"name":"dabi","type":"bytes"},
				{"name":"icon","type":"bytes"}
			]
		},
		{
			"name": "getRequiredInterfaces",
			"inputs": [
			],
			"outputs": [
				{"name":"interfaces","type":"uint256[]"}
			]
		},
		{
			"name": "onErrorRestart",
			"inputs": [
				{"name":"sdkError","type":"uint32"},
				{"name":"exitCode","type":"uint32"}
			],
			"outputs": [
			]
		},
		{
			"name": "transfer",
			"inputs": [
				{"name":"dest","type":"address"},
				{"name":"value","type":"uint128"},
				{"name":"bounce","type":"bool"},
				{"name":"flags","type":"uint16"}
			],
			"outputs": [
			]
		},
		{
			"name": "upgrade",
			"inputs": [
				{"name":"state","type":"cell"}
			],
			"outputs": [
			]
		},
		{
			"name": "getDebotOptions",
			"inputs": [
			],
			"outputs": [
				{"name":"options","type":"uint8"},
				{"name":"debotAbi","type":"bytes"},
				{"name":"targetAbi","type":"bytes"},
				{"name":"targetAddr","type":"address"}
			]
		},
		{
			"name": "setABI",
			"inputs": [
				{"name":"dabi","type":"bytes"}
			],
			"outputs": [
			]
		},
		{
			"name": "constructor",
			"inputs": [
			],
			"outputs": [
			]
		}
	],
	"data": [
	],
	"events": [
	]
}
