 {
        "deployer_alias" : "dn1NxT6WVYeAqrUfKBAgfWSk5VRoSbx8z7WF",
        "delegate": "dn1GgDxNZeGF3vr91EjrGyYrWuoX62iPvsn2",
        "admin": "dn1GgDxNZeGF3vr91EjrGyYrWuoX62iPvsn2",
        "swap_start": "2021-03-09T10:30:00Z",
        "swap_end": "2021-06-09T20:30:00Z",
        "swap_span": 7200,
        "vested_threshold": "0.",
        "total_exchangeable": "20000.0000"
 }
